Project
…
Strange Null Values to NA

Numeric Columns

Stop Frisk Time

# A tibble: 1,438 × 1
   STOP_FRISK_TIME    
   <chr>              
 1 1899-12-31 19:04:00
 2 1899-12-31 23:00:00
 3 1899-12-31 23:55:00
 4 1899-12-31 03:23:00
 5 1899-12-31 21:20:00
 6 1899-12-31         
 7 1899-12-31 00:20:00
 8 1899-12-31 01:35:00
 9 1899-12-31 09:25:00
10 1899-12-31 08:38:00
# ℹ 1,428 more rows
…
76 SUSPECTS_ACTIONS_LOOKOUT_FLAG                                       0
77 SUSPECTS_ACTIONS_OTHER_FLAG                                         0
78 SEARCH_BASIS_ADMISSION_FLAG                                         0
79 SEARCH_BASIS_CONSENT_FLAG                                           0
80 SEARCH_BASIS_HARD_OBJECT_FLAG                                       0
81 SEARCH_BASIS_INCIDENTAL_TO_ARREST_FLAG                              0
82 SEARCH_BASIS_OTHER_FLAG                                             0
83 SEARCH_BASIS_OUTLINE_FLAG                                           0
84 STOP_LOCATION_PRECINCT                                              0
85 STOP_LOCATION_FULL_ADDRESS                                          0
86 STOP_LOCATION_PATROL_BORO_NAME                                      0
87 STOP_LOCATION_BORO_NAME                                             0
88 FILE_YEAR                                                           0

# A tibble: 88 × 2
   Column                                 NA_Count
   <chr>                                     <int>
 1 STOP_LOCATION_PREMISES_NAME               75031
 2 ID_CARD_IDENTIFIES_OFFICER_FLAG           74767
 3 SUMMONS_OFFENSE_DESCRIPTION               73013
 4 STOP_LOCATION_APARTMENT                   71927
 5 OFFICER_NOT_EXPLAINED_STOP_DESCRIPTION    71342
 6 VERBAL_IDENTIFIES_OFFICER_FLAG            67968
 7 SHIELD_IDENTIFIES_OFFICER_FLAG            66938
 8 STOP_LOCATION_ZIP_CODE                    66104
 9 STOP_FRISK_ID                             64023
10 STOP_ID_ANONY                             61572
# ℹ 78 more rows
…
